module platform

go 1.19

require (
	github.com/julienschmidt/httprouter v1.3.0
	gorm.io/driver/sqlite v1.4.3
	gorm.io/gorm v1.24.2
)

require (
	github.com/jinzhu/inflection v1.0.0 // indirect
	github.com/jinzhu/now v1.1.5 // indirect
	github.com/mattn/go-sqlite3 v1.14.15 // indirect
)
